^C:\USERS\FDAI3744\SOURCE\REPOS\RAY-TRACER\RAY-TRACER\SRC\CPP\MAIN.CPP
C:\USERS\FDAI3744\SOURCE\REPOS\RAY-TRACER\RAY-TRACER\DEBUG\VC142.PDB
C:\USERS\FDAI3744\SOURCE\REPOS\RAY-TRACER\RAY-TRACER\DEBUG\VC142.IDB
C:\USERS\FDAI3744\SOURCE\REPOS\RAY-TRACER\RAY-TRACER\DEBUG\MAIN.OBJ
^C:\USERS\FDAI3744\DESKTOP\COMPUTER-GRAPHICS\RAY-TRACER\SRC\CPP\MAIN.CPP
C:\USERS\FDAI3744\DESKTOP\COMPUTER-GRAPHICS\RAY-TRACER\DEBUG\VC142.PDB
C:\USERS\FDAI3744\DESKTOP\COMPUTER-GRAPHICS\RAY-TRACER\DEBUG\VC142.IDB
C:\USERS\FDAI3744\DESKTOP\COMPUTER-GRAPHICS\RAY-TRACER\DEBUG\MAIN.OBJ
